{
  "data": [{
    "hash": "njqamy",
    "rubrics": {
      "main": "Lifestyle",
      "sub": "Travel"
    },
    "date": "2016-08-07T22:31:04+07:00",
    "reporter": {
      "name": "Joseph Satriani",
      "photo": "http://www.sunglassesid.com/sites/default/files/styles/node_2_col_-_308_wide/public/upload/sighting/Oakley-Straight-Jacket-Joe-Satriani.jpg?itok=9KWjNq8x"
    },
    "cover": {
      "background": {
        "type": "image",
        "url": "http://blogimages.indianroots.com/wp-content/uploads/2014/06/A_Tray_of_Panipuri_Gol_Gappa_Street_food_of_India.jpg"
      },
      "title": "World's 23 Best Cities For Street Food"
    },
    "news" : {
      "title": "World's 23 Best Cities For Street Food",
      "article": "<p class=\"row\"> <img src=\"https:\/\/upload.wikimedia.org\/wikipedia\/commons\/3\/3f\/Street_food_Yasothon.jpg\" alt=\"Street food\"\/> <\/p><p>Sidewalk vendors, push carts, holes in a wall &#8212; even in cities with rich reputations for fine dining, some of the best meals are on the streets.<\/p><p>Places like Hong Kong have blurred the line between haute cuisine and quick comfort food, as humble dim sum diners win Michelin stars.<\/p><p>That's still the exception, but most chefs on the street aren't looking for that kind of recognition. They're cooking for crowds who pack around their stands day after day.<\/p><p>Here are the 23 best cities in the world for street food, from quick snacks to moveable feasts.<\/p><h3>Bangkok, Thailand<\/h3> <p class=\"row\"> <img src=\"http:\/\/i2.cdn.turner.com\/cnnnext\/dam\/assets\/160712181658-street-food-city-bangkok2-exlarge-169.jpg\" alt=\"Street food in Bangkok Thailand\"\/> <\/p><p>It's impossible to avoid street food in Bangkok, where sidewalk vendors in different parts of the city operate on a fixed rotation. Some take care of the breakfast crowd with sweet soymilk and bean curd, others dish up fragrant rice and poached chicken for lunch.<\/p><p>The late-night crowd offers everything from phad thai noodles to grilled satay. Chef Van, of the French brasserie 4Garcons on Thong Lor Soi 13 in Bangkok, favors street food in Chinatown -- known locally as \"Yarowat.\" He recommends hoy tod nai mong, a crisp fried mussel pancake<\/p><blockquote> <p>The chef and owner makes them one by one on the charcoal stove.<\/p><\/blockquote> <p>Another favorite: Kuay tiew kai soi sai nam phung: \"It is noodle soup with chicken wing stew with young egg and pork intestine! I've had it since I was a kid.\"<\/p><h3>Tokyo, Japan<\/h3> <p>Tokyo is home to more Michelin-starred restaurants than any city in the world, but Japanese cuisine often gets reduced to one thing: sushi. Tokyo food lover Taro Namekawa likes to bring guests somewhere different, Teppen: Nakameguro, for grilled food.<\/p><blockquote> <p>They are very famous for grilling extremely fresh ingredients in front of you, with special kinds of charcoal that can grill fresh ingredients with high heat quickly to trap all the goodness of them inside.<\/p><\/blockquote> <p>They serve sushi too, but the grilled meats and vegetables draw in young and old Japanese diners, especially workers on their way home. It also has the benefit of being near the Meguro River, one of Tokyo's most beautiful spots for flower watching.<\/p><h3>Honolulu, Hawaii<\/h3> <p class=\"row\"> <img src=\"http:\/\/i2.cdn.turner.com\/cnnnext\/dam\/assets\/160711173650-world-street-food-honolulu-01-exlarge-169.jpg\" alt=\"Street food in Honolulu Hawaii\"\/> <\/p><p>Hawaiian food is a creative mishmash of cuisines, combining local traditions with the culinary tastes of successive waves of migrants from the mainland United States, Asia and Latin America. The result includes an array of raw fish salads known as poke (poh-kay), as easily available as a sandwich in other cities.<\/p><p>Tuna and octopus are the two most typical options, prepared with flavors inspired by everything from kimchi to ceviche. The city also has a thriving food truck culture.<\/p><p>The best is a bit of a drive. On the Kamehameha Highway in Haleiwa on the North Shore, a shaded parking lot full of trucks gives a culinary tour of Hawaii. Giovanni's Shrimp Truck covers shrimp in a sauce filled with chunks of caramelized garlic. It's so good that it's become a cliched place to visit -- except that Giovanni's really is delicious.<\/p>",
      "video" : {
        "position": "bottom",
        "url": "/public/videos/ClgHqL2P58Iyg.mp4",
        "poster": "/public/videos/ClgHqL2P58Iyg_placeholder.png"
      }
    }
  }, {
    "hash": "HwqfAG",
    "rubrics": {
      "main": "Lifestyle",
      "sub": "Photography"
    },
    "date": "2016-08-07T22:31:04+07:00",
    "reporter": {
      "name": "Joseph Satriani",
      "photo": "http://www.sunglassesid.com/sites/default/files/styles/node_2_col_-_308_wide/public/upload/sighting/Oakley-Straight-Jacket-Joe-Satriani.jpg?itok=9KWjNq8x"
    },
    "cover": {
      "background": {
        "type": "video",
        "url": "/public/videos/TcQC8UDnYnsjg.mp4"
      },
      "title": "Selfie Sticks On Mars?"
    },
    "news" : {
      "title": "Would You Take A Selfie On Mars? Julien Mauve Snaps Interplanetary Tourists",
      "article": "<p class=\"row\"><img src=\"http://i2.mirror.co.uk/incoming/article5851143.ece/ALTERNATES/s1227b/Greetings-from-Mars.jpg\" alt=\"Cheeky travel photos from a tourist on Mars\" /></p><p>If you went to Mars, would you take a selfie? In his photo series \"Greetings from Mars,\" photographer Julien Mauve imagines life as a tourist on the Red Planet -- selfie-stick and all. The irreverent photos were awarded the 2016 Sony World Photography Award for professional conceptual photography.</p><p>CNN Style spoke to Mauve to find out why he turned his lens to life on mars.</p><h3>What inspired \"Greeting from Mars\"?</h3><p>I've been fascinated with Mars since childhood. These days we hear a lot about NASA, Elon Musk and SpaceX. Space exploration and colonization are the greatest adventure of the century, and the fact that we may witness it in our lifetime makes it even more exciting.</p><p>In the meantime, Earth has become really small. We're only 12 hours and $800 away from the other side of the world. People can visit places we would never imagine only 50 years ago. Similarly, space tourism for middle class people is something which could happen in less than 100 years.</p><p>On top of that, smartphones and social networks have emerged, allowing us to share our lives with everyone else in real time -- a way to prove our existence in the eye of the world. These are all ideas I've tried to mix into this project.</p><p class=\"row\"><img src=\"http://i2.cdn.turner.com/cnnnext/dam/assets/160729142751-julien-mauve-greetings-from-mars-21-exlarge-169.jpg\" /></p><h3>Are your photos intended to celebrate or mock the current selfie obsession?</h3><p>Neither. I like to observe people, I like to see how they act, how they use pictures to convey their feelings. The first time I saw someone taking a picture with an iPad, I was really amused. Same thing with the selfie stick. I wanted to include this in the project because it's part of our species and who we are today.</p><h3>How did you create these Red Planet landscapes?</h3><p>When it comes to finding Mars lookalike landscapes on Earth, there is not a lot of choice.</p><p>They are very famous for grilling extremely fresh ingredients in front of you, with special kinds of charcoal that can grill fresh ingredients with high heat quickly to trap all the goodness of them inside.</p><p>Basically, what you need are rocks, sand, canyons and no signs of biological life. All of that with a red tint on it. Australia and the Wadi Rum in Jordan have those kind of landscapes, but I choose the Wild West because it offered a much larger variety in easily reachable distance.</p><p>I used a post-production tool to remove some plants or trees, but most of the post-production phase has been color calibration. To create a photographic universe as closely as possible resembling Mars, I used footage from NASA's Jet Propulsion Laboratory Curiosity rover.</p><p class=\"row\"><img src=\"http://i2.cdn.turner.com/cnnnext/dam/assets/160729141457-julien-mauve-greetings-from-mars-6-exlarge-169.jpg\" /></p><h3>Are your photos meant to communicate a message about the world as it is, or the world as it might be?</h3><p>Both I suppose. It's a humorous way of showing how we are today while making us think of what the world could become in the future.</p><h3>\"Greeting from Mars\" borders fiction and documentary. How is this relationship important to you?</h3><p>I want the world that I create to stay as close to reality as possible. That way the audience feels that my photographic world is something they could have experienced themselves.</p><h3>What feelings do you hope this collection evokes in its audience?</h3><p>One guy told me that he saw the \"Mars\" project as an expression of unconditional love. That was not my first intention, but in fact I was the one wearing one of the suits and my wife was the other. At some point I even thought about calling the project \"Honeymoon on Mars.\" So I was really glad this guy was able to catch this unconscious aspect of my work.</p>",
      "video" : {
        "position": "top",
        "url": "/public/videos/ClgHqL2P58Iyg.mp4",
        "poster": "/public/videos/ClgHqL2P58Iyg_placeholder.png"
      }
    },
  }]
}