{
  "data": [{
    "hash": "iwPaAw",
    "featured": false,
    "uri": "facebook-secret-conversations-mode/",
    "title": "Facebook Rolls Out 'Secret Conversations'",
    "cover": "http://i2.cdn.turner.com/cnnnext/dam/assets/160929190000-facebook-logo-overlay-tease.jpg",
    "rubric": {
      "main": "Technology",
      "sub": "Media"
    }
  }, {
    "hash": "sjaPwi",
    "featured": false,
    "uri": "facebook-marketplace-apology/",
    "title": "Facebook: Sorry For the Weird Stuff on Marketplace",
    "cover": "http://i2.cdn.turner.com/cnnnext/dam/assets/160929190000-facebook-logo-overlay-tease.jpg",
    "rubric": {
      "main": "Technology",
      "sub": "Media"
    }
  }, {
    "hash": "0sopIs",
    "featured": false,
    "uri": "amazon-prime-reading-launch/",
    "title": "Amazon Wants Prime Members To Read a Book",
    "cover": "http://cdn.coolmompicks.com/wp-content/uploads/sites/2/2016/10/kindle-photo-unsplash.jpeg",
    "rubric": {
      "main": "Technology",
      "sub": "Media"
    }
  }, {
    "hash": "IspqSJ",
    "featured": true,
    "uri": "amazon-prime-reading-launch/",
    "title": "Google Unveils Pixel Phone, VR Headset",
    "cover": "http://i.dailymail.co.uk/i/pix/2016/10/04/19/3919BF6B00000578-3821783-image-a-1_1475607002914.jpg",
    "rubric": {
      "main": "Technology",
      "sub": "Gadget"
    }
  }, {
    "hash": "Jsowpq",
    "featured": false,
    "uri": "elizabeth-holmes-theranos-minilab/",
    "title": "Theranos Cutting Hundreds of Jobs",
    "cover": "http://media.npr.org/assets/img/2016/10/06/gettyimages-493352638_custom-2507db343d5edbf3a16fe6196cfb33173cc89e13-s700-c85.jpg",
    "rubric": {
      "main": "Technology",
      "sub": "Career"
    }
  }, {
    "hash": "JsilaP",
    "featured": false,
    "uri": "samsung-stock-note-7/",
    "title": "What Note 7 Crisis? Samsung Stock Hits New High",
    "cover": "http://i2.cdn.turner.com/cnnnext/dam/assets/160915164224-glaxay-note-7-file-large-tease.jpg",
    "rubric": {
      "main": "Technology",
      "sub": "Invest"
    }
  }]
}